G04 EAGLE Gerber X2 export*
G75*
%MOMM*%
%FSLAX34Y34*%
%LPD*%
%AMOC8*
5,1,8,0,0,1.08239X$1,22.5*%
G01*
%ADD10C,1.511200*%
%ADD11C,1.853200*%
%ADD12C,3.053200*%
%ADD13P,1.869504X8X292.500000*%
%ADD14R,0.503200X1.803200*%
%ADD15C,2.203200*%
%ADD16C,2.184400*%
%ADD17C,1.727200*%
%ADD18R,1.625600X1.625600*%
%ADD19C,1.625600*%
%ADD20R,0.803200X1.703200*%
%ADD21R,1.703200X0.803200*%
%ADD22R,1.503200X1.703200*%
%ADD23C,0.959600*%
%ADD24C,5.203200*%


D10*
X459560Y282100D02*
X472640Y282100D01*
X472640Y307500D02*
X459560Y307500D01*
X459560Y332900D02*
X472640Y332900D01*
X472640Y358300D02*
X459560Y358300D01*
X459560Y383700D02*
X472640Y383700D01*
X472640Y409100D02*
X459560Y409100D01*
X459560Y434500D02*
X472640Y434500D01*
X472640Y459900D02*
X459560Y459900D01*
X459560Y485300D02*
X472640Y485300D01*
X472640Y510700D02*
X459560Y510700D01*
X459560Y536100D02*
X472640Y536100D01*
X472640Y561500D02*
X459560Y561500D01*
X320240Y282100D02*
X307160Y282100D01*
X307160Y307500D02*
X320240Y307500D01*
X320240Y332900D02*
X307160Y332900D01*
X307160Y485300D02*
X320240Y485300D01*
X320240Y510700D02*
X307160Y510700D01*
X307160Y536100D02*
X320240Y536100D01*
X320240Y561500D02*
X307160Y561500D01*
X307160Y637700D02*
X320240Y637700D01*
X459560Y637700D02*
X472640Y637700D01*
X472640Y612300D02*
X459560Y612300D01*
X459560Y586900D02*
X472640Y586900D01*
X320240Y612300D02*
X307160Y612300D01*
X307160Y586900D02*
X320240Y586900D01*
X320240Y358300D02*
X307160Y358300D01*
X307160Y459900D02*
X320240Y459900D01*
X320240Y434500D02*
X307160Y434500D01*
X307160Y409100D02*
X320240Y409100D01*
X320240Y383700D02*
X307160Y383700D01*
X738960Y282100D02*
X752040Y282100D01*
X752040Y307500D02*
X738960Y307500D01*
X738960Y332900D02*
X752040Y332900D01*
X752040Y358300D02*
X738960Y358300D01*
X738960Y383700D02*
X752040Y383700D01*
X752040Y409100D02*
X738960Y409100D01*
X738960Y434500D02*
X752040Y434500D01*
X752040Y459900D02*
X738960Y459900D01*
X738960Y485300D02*
X752040Y485300D01*
X752040Y510700D02*
X738960Y510700D01*
X738960Y536100D02*
X752040Y536100D01*
X752040Y561500D02*
X738960Y561500D01*
X599640Y282100D02*
X586560Y282100D01*
X586560Y307500D02*
X599640Y307500D01*
X599640Y332900D02*
X586560Y332900D01*
X586560Y485300D02*
X599640Y485300D01*
X599640Y510700D02*
X586560Y510700D01*
X586560Y536100D02*
X599640Y536100D01*
X599640Y561500D02*
X586560Y561500D01*
X586560Y637700D02*
X599640Y637700D01*
X738960Y637700D02*
X752040Y637700D01*
X752040Y612300D02*
X738960Y612300D01*
X738960Y586900D02*
X752040Y586900D01*
X599640Y612300D02*
X586560Y612300D01*
X586560Y586900D02*
X599640Y586900D01*
X599640Y358300D02*
X586560Y358300D01*
X586560Y459900D02*
X599640Y459900D01*
X599640Y434500D02*
X586560Y434500D01*
X586560Y409100D02*
X599640Y409100D01*
X599640Y383700D02*
X586560Y383700D01*
D11*
X179800Y34300D03*
X179800Y93300D03*
X154800Y34300D03*
X154800Y93300D03*
D12*
X40800Y41800D03*
X40800Y85800D03*
D13*
X858530Y567850D03*
X883930Y567850D03*
X858530Y542450D03*
X883930Y542450D03*
X858530Y517050D03*
X883930Y517050D03*
X858530Y491650D03*
X883930Y491650D03*
X858530Y466250D03*
X883930Y466250D03*
X858530Y440850D03*
X883930Y440850D03*
X858530Y415450D03*
X883930Y415450D03*
X858530Y390050D03*
X883930Y390050D03*
X858530Y364650D03*
X883930Y364650D03*
X858530Y339250D03*
X883930Y339250D03*
X858530Y313850D03*
X883930Y313850D03*
X858530Y288450D03*
X883930Y288450D03*
X858530Y263050D03*
X883930Y263050D03*
X858530Y237650D03*
X883930Y237650D03*
X858530Y212250D03*
X883930Y212250D03*
X858530Y186850D03*
X883930Y186850D03*
X858530Y161450D03*
X883930Y161450D03*
X858530Y136050D03*
X883930Y136050D03*
X858530Y110650D03*
X883930Y110650D03*
X858530Y85250D03*
X883930Y85250D03*
D14*
X700000Y341000D03*
X693500Y341000D03*
X687000Y341000D03*
X680500Y341000D03*
X674000Y341000D03*
X667500Y341000D03*
X661000Y341000D03*
X654500Y341000D03*
X648000Y341000D03*
X700000Y397000D03*
X693500Y397000D03*
X687000Y397000D03*
X680500Y397000D03*
X674000Y397000D03*
X667500Y397000D03*
X661000Y397000D03*
X654500Y397000D03*
X648000Y397000D03*
X641500Y397000D03*
X641500Y341000D03*
D15*
X782700Y697900D02*
X782700Y717900D01*
X843700Y717900D02*
X843700Y697900D01*
X823700Y755900D02*
X803700Y755900D01*
D16*
X49766Y442606D02*
X29954Y442606D01*
X29954Y392314D02*
X49766Y392314D01*
D17*
X394600Y67620D02*
X394600Y52380D01*
X420000Y52380D02*
X420000Y67620D01*
X445400Y67620D02*
X445400Y52380D01*
X489600Y52380D02*
X489600Y67620D01*
X515000Y67620D02*
X515000Y52380D01*
X540400Y52380D02*
X540400Y67620D01*
D18*
X127500Y640000D03*
D19*
X92500Y640000D03*
D18*
X124600Y273100D03*
D19*
X89600Y273100D03*
D17*
X443500Y742380D02*
X443500Y757620D01*
X418100Y757620D02*
X418100Y742380D01*
X392700Y742380D02*
X392700Y757620D01*
X367300Y757620D02*
X367300Y742380D01*
X341900Y742380D02*
X341900Y757620D01*
X316500Y757620D02*
X316500Y742380D01*
X764600Y67620D02*
X764600Y52380D01*
X790000Y52380D02*
X790000Y67620D01*
X815400Y67620D02*
X815400Y52380D01*
X674600Y52380D02*
X674600Y67620D01*
X700000Y67620D02*
X700000Y52380D01*
X725400Y52380D02*
X725400Y67620D01*
X584600Y67620D02*
X584600Y52380D01*
X610000Y52380D02*
X610000Y67620D01*
X635400Y67620D02*
X635400Y52380D01*
X338100Y52380D02*
X338100Y67620D01*
X312700Y67620D02*
X312700Y52380D01*
X287300Y52380D02*
X287300Y67620D01*
X261900Y67620D02*
X261900Y52380D01*
D20*
X730650Y742500D03*
X730650Y687500D03*
X717950Y742500D03*
X743350Y742500D03*
X756050Y742500D03*
X717950Y687500D03*
X743350Y687500D03*
X756050Y687500D03*
D21*
X626500Y684350D03*
X571500Y684350D03*
X626500Y697050D03*
X626500Y671650D03*
X626500Y658950D03*
X571500Y697050D03*
X571500Y671650D03*
X571500Y658950D03*
D22*
X657500Y681000D03*
X676500Y681000D03*
X746340Y766810D03*
X765340Y766810D03*
X534500Y688000D03*
X515500Y688000D03*
X743690Y660190D03*
X762690Y660190D03*
X805500Y667000D03*
X824500Y667000D03*
D16*
X565146Y730094D02*
X565146Y749906D01*
X514854Y749906D02*
X514854Y730094D01*
X49836Y554906D02*
X30024Y554906D01*
X30024Y504614D02*
X49836Y504614D01*
D23*
X175000Y745000D03*
X190000Y745000D03*
X205000Y745000D03*
X220000Y745000D03*
X235000Y745000D03*
X250000Y745000D03*
X250000Y730000D03*
X235000Y730000D03*
X205000Y730000D03*
X220000Y730000D03*
X175000Y715000D03*
X190000Y715000D03*
X220000Y715000D03*
X260000Y505000D03*
X165000Y405000D03*
X180000Y405000D03*
X195000Y405000D03*
X210000Y405000D03*
X225000Y405000D03*
X240000Y405000D03*
X240000Y390000D03*
X240000Y375000D03*
X225000Y375000D03*
X225000Y390000D03*
X210000Y390000D03*
X195000Y390000D03*
X180000Y390000D03*
X165000Y390000D03*
X165000Y375000D03*
X180000Y375000D03*
X210000Y375000D03*
X195000Y375000D03*
X190000Y730000D03*
X175000Y730000D03*
X205000Y716000D03*
X235000Y715000D03*
X250000Y715000D03*
X266000Y160000D03*
X671000Y416000D03*
X715000Y431000D03*
X692000Y417000D03*
X290000Y500000D03*
X290000Y395000D03*
X715000Y369000D03*
X719000Y345000D03*
X684000Y356000D03*
X676000Y371000D03*
X668000Y377000D03*
X415000Y485000D03*
X679730Y576000D03*
X743000Y706000D03*
X626000Y647000D03*
X697000Y681000D03*
X721000Y721000D03*
D24*
X871100Y616350D03*
X380830Y616110D03*
M02*
